id;id_azienda;modello;data_revisione;cavalli;capacita;targa;data_iniz_vali;data_fine_vali;user_id_creator;user_id_last_mod;note
1;11347;Global;2020-01-15;69578;25794;deposit;2020-01-15;2020-01-15;55520;51663;../fake-data/blob/hipster.txt
2;52965;Vision-oriented;2020-01-16;96541;89721;Human deposit;2020-01-16;2020-01-16;34920;70035;../fake-data/blob/hipster.txt
3;72595;Internal AI optical;2020-01-16;85092;8413;Cheese Dynamic Home Loan Account;2020-01-16;2020-01-16;10147;94013;../fake-data/blob/hipster.txt
4;66350;Home Gloves Latvia;2020-01-16;44842;65196;Devolved driver Networked;2020-01-16;2020-01-16;74649;36646;../fake-data/blob/hipster.txt
5;64963;calculating withdrawal Nevada;2020-01-16;50881;36771;dedicated Persevering;2020-01-15;2020-01-15;39309;48674;../fake-data/blob/hipster.txt
6;89204;withdrawal cross-platform Borders;2020-01-16;66892;49251;white sensor local;2020-01-16;2020-01-15;64547;4360;../fake-data/blob/hipster.txt
7;17711;Applications Response Human;2020-01-16;74771;1545;Tactics architectures Planner;2020-01-15;2020-01-15;85300;7534;../fake-data/blob/hipster.txt
8;29444;reinvent;2020-01-15;26847;31692;Pants Maryland;2020-01-15;2020-01-15;69602;93001;../fake-data/blob/hipster.txt
9;57006;Intelligent;2020-01-16;67114;99005;Concrete Bedfordshire;2020-01-15;2020-01-16;74076;84866;../fake-data/blob/hipster.txt
10;69701;Sudanese Pound;2020-01-16;55281;29359;redundant;2020-01-15;2020-01-16;86707;61151;../fake-data/blob/hipster.txt
