id;id_azienda;id_unita_prod;tara;uuid_esri;data_iniz_vali;data_fine_vali;user_id_creator;user_id_last_mod;note
1;77513;44975;93949;Chief Credit Card Account;2020-01-13;2020-01-14;8849;57044;../fake-data/blob/hipster.txt
2;19598;52083;4522;software scale interactive;2020-01-13;2020-01-13;35675;96525;../fake-data/blob/hipster.txt
3;28093;60703;54269;Plastic;2020-01-13;2020-01-14;7455;1563;../fake-data/blob/hipster.txt
4;98688;42340;77224;orange Books;2020-01-13;2020-01-14;70685;71134;../fake-data/blob/hipster.txt
5;72900;79017;77127;Unbranded Plastic Tuna Frozen;2020-01-13;2020-01-13;62329;44945;../fake-data/blob/hipster.txt
6;33089;9541;6355;moratorium moratorium;2020-01-13;2020-01-13;63755;27472;../fake-data/blob/hipster.txt
7;88721;56124;47221;Frozen bus;2020-01-13;2020-01-13;56127;23598;../fake-data/blob/hipster.txt
8;77096;25606;49379;Poland;2020-01-14;2020-01-14;2541;43933;../fake-data/blob/hipster.txt
9;10789;20171;3142;withdrawal knowledge base Buckinghamshire;2020-01-13;2020-01-14;24929;60441;../fake-data/blob/hipster.txt
10;41038;53984;75555;User-centric;2020-01-14;2020-01-13;28975;69478;../fake-data/blob/hipster.txt
