id;descrizione;data_iniz_vali;data_fine_vali;user_id_creator;user_id_last_mod;note
1;JSON navigating Plaza;2020-01-13;2020-01-13;21774;43776;../fake-data/blob/hipster.txt
2;local area network;2020-01-12;2020-01-13;93617;44927;../fake-data/blob/hipster.txt
3;Directives Accountability Re-engineered;2020-01-13;2020-01-13;47407;6728;../fake-data/blob/hipster.txt
4;didactic Lead deposit;2020-01-12;2020-01-13;25715;31572;../fake-data/blob/hipster.txt
5;auxiliary Iranian Rial migration;2020-01-13;2020-01-13;9555;82300;../fake-data/blob/hipster.txt
6;Upgradable invoice transition;2020-01-13;2020-01-13;10745;4619;../fake-data/blob/hipster.txt
7;Virginia;2020-01-12;2020-01-13;17735;81967;../fake-data/blob/hipster.txt
8;Assistant;2020-01-13;2020-01-13;26517;41370;../fake-data/blob/hipster.txt
9;Yemeni Rial Universal;2020-01-13;2020-01-13;77002;79511;../fake-data/blob/hipster.txt
10;Frozen Director;2020-01-12;2020-01-13;16372;73435;../fake-data/blob/hipster.txt
