id;indirizzo;cap;nazione;regione;provincia;comune;numero_civ;latitude;longitude;data_iniz_vali;data_fine_vali;user_id_creator;user_id_last_mod;note
1;Garden moratorium Consultant;Markets Cross-group;Liaison Industrial;Accounts Dominican Republic quantifying;Generic Cloned;program Rubber connecting;Fish Small Wooden Gloves Expanded;34167;36013;2020-01-13;2020-01-13;34632;93695;../fake-data/blob/hipster.txt
2;Lithuania;navigating;Village;XML Sausages;Borders Planner navigating;Cambridgeshire;Granite quantifying;38062;67430;2020-01-12;2020-01-13;86805;72142;../fake-data/blob/hipster.txt
3;Soft orange bypassing;utilize;Chicken;compelling;North Carolina Creative Connecticut;FTP Investor;Rubber Legacy;82933;17483;2020-01-13;2020-01-13;95279;39866;../fake-data/blob/hipster.txt
4;Metal leading-edge Sleek Steel Hat;Versatile;San Marino;Cotton Money Market Account Optimization;solutions Refined deposit;Kids;withdrawal Shirt;6134;56444;2020-01-12;2020-01-13;45980;21175;../fake-data/blob/hipster.txt
5;Cambridgeshire;Generic Metal Gloves Administrator Devolved;Rustic;data-warehouse Intelligent Saudi Riyal;Home Loan Account;Manager open-source;orange Soap;65572;52704;2020-01-12;2020-01-13;72431;13071;../fake-data/blob/hipster.txt
6;AI Ports pink;Iraq Buckinghamshire;interface;Supervisor Inverse Granite;Jewelery logistical;Belize Dollar sky blue Savings Account;Sports;24120;62929;2020-01-12;2020-01-13;80153;6461;../fake-data/blob/hipster.txt
7;Sleek Cotton Computer intermediate withdrawal;compressing Rustic;Wooden FTP;alarm;cross-platform Investment Account;Key mobile Direct;Licensed withdrawal Quality;80888;43760;2020-01-13;2020-01-13;27936;84087;../fake-data/blob/hipster.txt
8;Gorgeous Fresh Cheese Stream withdrawal;e-enable Points;Personal Loan Account;Motorway;Computer matrix Berkshire;Small Steel Computer synthesize deposit;Ergonomic Steel Chair Optimization interface;35325;46194;2020-01-13;2020-01-12;34970;97074;../fake-data/blob/hipster.txt
9;Branding digital e-business;Awesome invoice;Gorgeous Cotton Chair Ergonomic Cambridgeshire;regional compress Personal Loan Account;Djibouti Franc Music;Money Market Account;Generic Frozen Hat Camp Principal;32221;79871;2020-01-13;2020-01-13;47433;97997;../fake-data/blob/hipster.txt
10;Investment Account;Legacy Slovenia;deposit Steel;Unbranded Savings Account;seize;Japan maximize;Response;24069;92831;2020-01-13;2020-01-13;19747;49604;../fake-data/blob/hipster.txt
