id;indirizzo;cap;nazione;regione;provincia;comune;numero_civ;latitude;longitude;data_iniz_vali;data_fine_vali;user_id_creator;user_id_last_mod;note
1;Cheese;hack;invoice back-end;Money Market Account Pine experiences;Pants;Handmade Cloned systematic;auxiliary Baby Intelligent;4912;8186;2020-01-13;2020-01-13;50928;22447;../fake-data/blob/hipster.txt
2;Estonia ubiquitous;compelling Practical Plastic Bacon American Samoa;Ethiopia hack;backing up;Gloves portals Borders;system grow;quantify Practical calculate;68862;95280;2020-01-12;2020-01-12;73446;4001;../fake-data/blob/hipster.txt
3;concept Mountains;Quality;backing up protocol;Engineer Refined Steel Cheese viral;card Fantastic bluetooth;Home Dynamic;withdrawal fuchsia;3039;95307;2020-01-13;2020-01-13;56951;17244;../fake-data/blob/hipster.txt
4;programming synthesize Mobility;infrastructures parse grey;payment Books;alarm quantifying iterate;Cambridgeshire users;optimal throughput CFA Franc BCEAO;orchestrate Groves;25598;89998;2020-01-13;2020-01-13;36454;98597;../fake-data/blob/hipster.txt
5;hack Research teal;Small Credit Card Account Granite;clicks-and-mortar;optical auxiliary Soap;magnetic communities generating;Sausages;Car invoice Taka;25219;57944;2020-01-13;2020-01-12;83479;1190;../fake-data/blob/hipster.txt
6;Bedfordshire back-end Arkansas;blue;Checking Account applications;program Tactics;West Virginia Home Loan Account maximize;Engineer;Chair parallelism;19944;90546;2020-01-13;2020-01-12;56906;58383;../fake-data/blob/hipster.txt
7;Croatian Kuna Manager;Norway;needs-based payment Auto Loan Account;sticky;Home Loan Account;black;calculating productivity;48806;30183;2020-01-12;2020-01-13;22714;62096;../fake-data/blob/hipster.txt
8;generating input;Lead District compress;Steel;recontextualize Wooden driver;5th generation transmitting;Balanced;Handcrafted Cotton Table Division;28592;6562;2020-01-13;2020-01-13;10193;76484;../fake-data/blob/hipster.txt
9;International ROI;orchestration parsing;motivating;extend methodology;Refined Home Loan Account;Beauty;Kiribati EXE;46249;67095;2020-01-13;2020-01-13;23096;50201;../fake-data/blob/hipster.txt
10;Florida killer Cuban Peso Peso Convertible;copy;Tactics viral;HDD Vietnam;Agent Virginia Garden;Intranet Tools revolutionize;morph Home compressing;54585;61231;2020-01-13;2020-01-13;25089;72673;../fake-data/blob/hipster.txt
