id;id_azienda;descrizione;data_inizio_mag;data_fine_mag;user_id_creator;user_id_last_mod;note
1;91324;Avon;2020-01-16;2020-01-16;79829;19427;../fake-data/blob/hipster.txt
2;64996;Yen;2020-01-15;2020-01-16;89000;88661;../fake-data/blob/hipster.txt
3;33799;incubate;2020-01-16;2020-01-16;57828;67202;../fake-data/blob/hipster.txt
4;3594;Dale;2020-01-16;2020-01-15;28654;83893;../fake-data/blob/hipster.txt
5;59083;Computers Small Fresh Gloves back-end;2020-01-16;2020-01-16;52224;82786;../fake-data/blob/hipster.txt
6;76999;lavender;2020-01-16;2020-01-16;8534;84202;../fake-data/blob/hipster.txt
7;5168;Iran;2020-01-16;2020-01-16;63742;13835;../fake-data/blob/hipster.txt
8;72609;Strategist;2020-01-16;2020-01-16;32295;4106;../fake-data/blob/hipster.txt
9;79518;global mindshare;2020-01-16;2020-01-16;2535;18433;../fake-data/blob/hipster.txt
10;96264;navigating;2020-01-16;2020-01-16;40895;5819;../fake-data/blob/hipster.txt
