id;descrizione;tipo_import;operatore;ts;data_iniz_vali;data_fine_vali;user_id_creator;user_id_last_mod;note
1;../fake-data/blob/hipster.txt;Handcrafted Plastic Towels synthesize technologies;Rubber invoice United States Minor Outlying Islands;2020-01-13T01:54:39;2020-01-13;2020-01-13;45641;90686;../fake-data/blob/hipster.txt
2;../fake-data/blob/hipster.txt;Illinois Fantastic;El Salvador Colon US Dollar Secured;2020-01-13T02:48:30;2020-01-13;2020-01-13;89474;9049;../fake-data/blob/hipster.txt
3;../fake-data/blob/hipster.txt;Berkshire;International;2020-01-12T19:44:44;2020-01-13;2020-01-13;89223;85898;../fake-data/blob/hipster.txt
4;../fake-data/blob/hipster.txt;Intelligent ADP;initiatives;2020-01-13T06:57:42;2020-01-13;2020-01-13;41796;52117;../fake-data/blob/hipster.txt
5;../fake-data/blob/hipster.txt;Gloves;Soft;2020-01-13T10:08:51;2020-01-13;2020-01-13;35900;44185;../fake-data/blob/hipster.txt
6;../fake-data/blob/hipster.txt;24/365 transmit Product;Incredible Frozen Fish orchestrate back-end;2020-01-13T10:33:22;2020-01-13;2020-01-13;80770;87331;../fake-data/blob/hipster.txt
7;../fake-data/blob/hipster.txt;Ergonomic Fresh Keyboard;HDD payment;2020-01-13T11:10:44;2020-01-12;2020-01-13;4343;52757;../fake-data/blob/hipster.txt
8;../fake-data/blob/hipster.txt;invoice;program;2020-01-13T16:49:56;2020-01-13;2020-01-13;69413;52957;../fake-data/blob/hipster.txt
9;../fake-data/blob/hipster.txt;seize;cross-platform;2020-01-13T04:12:44;2020-01-13;2020-01-13;79894;79013;../fake-data/blob/hipster.txt
10;../fake-data/blob/hipster.txt;maroon Cedi virtual;Buckinghamshire alarm;2020-01-13T08:38:34;2020-01-13;2020-01-13;80885;38248;../fake-data/blob/hipster.txt
