id;id_azienda;id_unita_prod;percent_lavorata;id_appezzamento;data_iniz_vali;data_fine_vali;user_id_creator;user_id_last_mod
1;21906;83331;3672;84392;2020-01-14;2020-01-14;33886;46285
2;80258;43853;57204;21850;2020-01-13;2020-01-14;29348;4438
3;93175;27782;39701;81668;2020-01-14;2020-01-14;61706;81820
4;11383;53159;34522;87986;2020-01-13;2020-01-13;87422;2966
5;49354;67542;70225;4485;2020-01-13;2020-01-14;13148;92942
6;27473;16520;39457;38987;2020-01-14;2020-01-13;41102;88225
7;90761;67094;71403;25817;2020-01-13;2020-01-13;30937;29672
8;82379;71842;95506;95403;2020-01-13;2020-01-13;156;86288
9;63640;210;5113;71757;2020-01-14;2020-01-13;5952;4055
10;60379;87159;68658;25669;2020-01-14;2020-01-13;38383;80035
