id;descrizione;data_iniz_vali;data_fine_vali;user_id_creator;user_id_last_mod
1;Lempira;2020-01-14;2020-01-14;59129;63755
2;COM;2020-01-15;2020-01-15;11959;97171
3;synthesizing hard drive Robust;2020-01-15;2020-01-15;4043;52273
4;partnerships Grocery Intelligent;2020-01-15;2020-01-14;63641;47537
5;Montana;2020-01-14;2020-01-14;13933;24929
6;relationships override;2020-01-15;2020-01-14;7697;59886
7;Chilean Peso Unidades de fomento;2020-01-14;2020-01-14;62435;80812
8;deposit;2020-01-14;2020-01-15;80367;21844
9;e-business;2020-01-14;2020-01-15;32434;80744
10;National;2020-01-15;2020-01-14;11005;27213
