id;descrizione;moltiplicatore;data_inizio_mag;data_fine_mag;user_id_creator;user_id_last_mod;note
1;compress South Georgia and the South Sandwich Islands;58675;2020-01-14;2020-01-13;28093;60703;../fake-data/blob/hipster.txt
2;bifurcated scalable;16526;2020-01-14;2020-01-14;98688;42340;../fake-data/blob/hipster.txt
3;reinvent 24 hour Jewelery;19884;2020-01-14;2020-01-14;72900;79017;../fake-data/blob/hipster.txt
4;Checking Account Identity deposit;91495;2020-01-13;2020-01-13;62329;44945;../fake-data/blob/hipster.txt
5;Ergonomic;37081;2020-01-14;2020-01-14;32518;66592;../fake-data/blob/hipster.txt
6;New York tangible Mississippi;38292;2020-01-14;2020-01-13;71324;84891;../fake-data/blob/hipster.txt
7;hard drive Robust Networked;4043;2020-01-14;2020-01-14;42754;11089;../fake-data/blob/hipster.txt
8;partnerships;20171;2020-01-14;2020-01-13;63641;47537;../fake-data/blob/hipster.txt
9;Montana;69551;2020-01-13;2020-01-14;24929;60441;../fake-data/blob/hipster.txt
10;Saint Lucia white;94285;2020-01-14;2020-01-14;28975;69478;../fake-data/blob/hipster.txt
