id;cod_um_dose;descrizione;tipo_import;operatore;ts;data_iniz_vali;data_fine_vali;user_id_creator;user_id_last_mod;note
1;Metrics North Carolina;generating Granite FTP;Investment Account Rubber Legacy;Gloves Cambridgeshire revolutionize;2020-01-15T11:47:49;2020-01-14;2020-01-15;12176;6817;../fake-data/blob/hipster.txt
2;Beauty Concrete;Awesome parse Cotton;task-force Cambridgeshire;attitude-oriented quantifying;2020-01-15T15:18:06;2020-01-15;2020-01-15;61958;60255;../fake-data/blob/hipster.txt
3;intuitive streamline;digital Ferry;Cambridgeshire;Generic Metal Gloves Administrator Devolved;2020-01-15T11:53:45;2020-01-15;2020-01-15;78269;30327;../fake-data/blob/hipster.txt
4;Intelligent;Convertible Marks Home Loan Account invoice;open-source;orange Soap;2020-01-14T23:34:21;2020-01-15;2020-01-14;42608;72431;../fake-data/blob/hipster.txt
5;optical;Ports pink;Iraq Buckinghamshire;interface;2020-01-14T20:50:48;2020-01-14;2020-01-15;24858;41615;../fake-data/blob/hipster.txt
6;Land;open-source;synthesize Concrete;Savings Account access;2020-01-14T19:17:12;2020-01-15;2020-01-15;97587;19885;../fake-data/blob/hipster.txt
7;Tasty Steel Shoes transform intermediate;Mill compressing;Shoes;Pizza;2020-01-15T07:31:03;2020-01-15;2020-01-14;65171;47601;../fake-data/blob/hipster.txt
8;maximize exploit Key;Interactions Frozen Licensed;throughput Trinidad and Tobago Dollar;Gorgeous stable;2020-01-14T16:58:57;2020-01-15;2020-01-15;90176;78117;../fake-data/blob/hipster.txt
9;quantifying Borders;District deposit;Senior Motorway;Computer matrix Berkshire;2020-01-14T22:59:04;2020-01-15;2020-01-15;3802;8479;../fake-data/blob/hipster.txt
10;alarm Licensed Steel Computer Books;Buckinghamshire facilitate Green;holistic reboot invoice;e-business;2020-01-15T05:25:07;2020-01-15;2020-01-15;66030;83053;../fake-data/blob/hipster.txt
